%YAML 1.1
%TAG !u! tag:unity3d.com,2011:
--- !u!74 &7400000
AnimationClip:
  m_ObjectHideFlags: 0
  m_CorrespondingSourceObject: {fileID: 0}
  m_PrefabInstance: {fileID: 0}
  m_PrefabAsset: {fileID: 0}
  m_Name: Ball_Idle
  serializedVersion: 6
  m_Legacy: 0
  m_Compressed: 0
  m_UseHighQualityCurve: 1
  m_RotationCurves: []
  m_CompressedRotationCurves: []
  m_EulerCurves: []
  m_PositionCurves: []
  m_ScaleCurves:
  - curve:
      serializedVersion: 2
      m_Curve:
      - serializedVersion: 3
        time: 0
        value: {x: 0.95, y: 0.95, z: 0.95}
        inSlope: {x: 0, y: 0, z: 0}
        outSlope: {x: 0, y: 0, z: 0}
        tangentMode: 0
        weightedMode: 3
        inWeight: {x: 0.33333334, y: 0.33333334, z: 0.33333334}
        outWeight: {x: 0.33333334, y: 0.33333334, z: 0.33333334}
      - serializedVersion: 3
        time: 3
        value: {x: 0.95, y: 0.95, z: 0.95}
        inSlope: {x: 0, y: 0, z: 0}
        outSlope: {x: 0, y: 0, z: 0}
        tangentMode: 0
        weightedMode: 3
        inWeight: {x: 0.33333334, y: 0.33333334, z: 0.33333334}
        outWeight: {x: 0.33333334, y: 0.33333334, z: 0.33333334}
      m_PreInfinity: 2
      m_PostInfinity: 2
      m_RotationOrder: 4
    path: 
  m_FloatCurves:
  - curve:
      serializedVersion: 2
      m_Curve:
      - serializedVersion: 3
        time: 0
        value: 50
        inSlope: -3.460896
        outSlope: -3.460896
        tangentMode: 0
        weightedMode: 3
        inWeight: 0.33333334
        outWeight: 0.50288886
      - serializedVersion: 3
        time: 0.6666667
        value: 0
        inSlope: -3.9944377
        outSlope: -3.9944377
        tangentMode: 0
        weightedMode: 3
        inWeight: 0.50898653
        outWeight: 0.39579415
      - serializedVersion: 3
        time: 1.5
        value: 100
        inSlope: 18.172436
        outSlope: 18.172436
        tangentMode: 0
        weightedMode: 3
        inWeight: 0.39998046
        outWeight: 0.39459318
      - serializedVersion: 3
        time: 2.3333333
        value: 0
        inSlope: 4.0118527
        outSlope: 4.0118527
        tangentMode: 0
        weightedMode: 3
        inWeight: 0.40407118
        outWeight: 0.50677866
      - serializedVersion: 3
        time: 3
        value: 50
        inSlope: -8.687146
        outSlope: -8.687146
        tangentMode: 0
        weightedMode: 3
        inWeight: 0.50493187
        outWeight: 0.25622642
      m_PreInfinity: 2
      m_PostInfinity: 2
      m_RotationOrder: 4
    attribute: blendShape.Ball.Deforming_1
    path: 
    classID: 137
    script: {fileID: 0}
  - curve:
      serializedVersion: 2
      m_Curve:
      - serializedVersion: 3
        time: 0
        value: 50
        inSlope: 156.04852
        outSlope: 156.04852
        tangentMode: 0
        weightedMode: 3
        inWeight: 0.33333334
        outWeight: 0.36674708
      - serializedVersion: 3
        time: 3
        value: 50
        inSlope: 111.441376
        outSlope: 111.441376
        tangentMode: 0
        weightedMode: 3
        inWeight: 0.5072424
        outWeight: 0.20359325
      m_PreInfinity: 2
      m_PostInfinity: 2
      m_RotationOrder: 4
    attribute: blendShape.Ball.Deforming_2
    path: 
    classID: 137
    script: {fileID: 0}
  m_PPtrCurves: []
  m_SampleRate: 60
  m_WrapMode: 0
  m_Bounds:
    m_Center: {x: 0, y: 0, z: 0}
    m_Extent: {x: 0, y: 0, z: 0}
  m_ClipBindingConstant:
    genericBindings:
    - serializedVersion: 2
      path: 0
      attribute: 3
      script: {fileID: 0}
      typeID: 4
      customType: 0
      isPPtrCurve: 0
    - serializedVersion: 2
      path: 0
      attribute: 2869905518
      script: {fileID: 0}
      typeID: 137
      customType: 20
      isPPtrCurve: 0
    - serializedVersion: 2
      path: 0
      attribute: 839260628
      script: {fileID: 0}
      typeID: 137
      customType: 20
      isPPtrCurve: 0
    pptrCurveMapping: []
  m_AnimationClipSettings:
    serializedVersion: 2
    m_AdditiveReferencePoseClip: {fileID: 0}
    m_AdditiveReferencePoseTime: 0
    m_StartTime: 0
    m_StopTime: 3
    m_OrientationOffsetY: 0
    m_Level: 0
    m_CycleOffset: 0
    m_HasAdditiveReferencePose: 0
    m_LoopTime: 1
    m_LoopBlend: 0
    m_LoopBlendOrientation: 0
    m_LoopBlendPositionY: 0
    m_LoopBlendPositionXZ: 0
    m_KeepOriginalOrientation: 0
    m_KeepOriginalPositionY: 1
    m_KeepOriginalPositionXZ: 0
    m_HeightFromFeet: 0
    m_Mirror: 0
  m_EditorCurves:
  - curve:
      serializedVersion: 2
      m_Curve:
      - serializedVersion: 3
        time: 0
        value: 50
        inSlope: -3.460896
        outSlope: -3.460896
        tangentMode: 0
        weightedMode: 3
        inWeight: 0.33333334
        outWeight: 0.50288886
      - serializedVersion: 3
        time: 0.6666667
        value: 0
        inSlope: -3.9944377
        outSlope: -3.9944377
        tangentMode: 0
        weightedMode: 3
        inWeight: 0.50898653
        outWeight: 0.39579415
      - serializedVersion: 3
        time: 1.5
        value: 100
        inSlope: 18.172436
        outSlope: 18.172436
        tangentMode: 0
        weightedMode: 3
        inWeight: 0.39998046
        outWeight: 0.39459318
      - serializedVersion: 3
        time: 2.3333333
        value: 0
        inSlope: 4.0118527
        outSlope: 4.0118527
        tangentMode: 0
        weightedMode: 3
        inWeight: 0.40407118
        outWeight: 0.50677866
      - serializedVersion: 3
        time: 3
        value: 50
        inSlope: -8.687146
        outSlope: -8.687146
        tangentMode: 0
        weightedMode: 3
        inWeight: 0.50493187
        outWeight: 0.25622642
      m_PreInfinity: 2
      m_PostInfinity: 2
      m_RotationOrder: 4
    attribute: blendShape.Ball.Deforming_1
    path: 
    classID: 137
    script: {fileID: 0}
  - curve:
      serializedVersion: 2
      m_Curve:
      - serializedVersion: 3
        time: 0
        value: 50
        inSlope: 156.04852
        outSlope: 156.04852
        tangentMode: 0
        weightedMode: 3
        inWeight: 0.33333334
        outWeight: 0.36674708
      - serializedVersion: 3
        time: 3
        value: 50
        inSlope: 111.441376
        outSlope: 111.441376
        tangentMode: 0
        weightedMode: 3
        inWeight: 0.5072424
        outWeight: 0.20359325
      m_PreInfinity: 2
      m_PostInfinity: 2
      m_RotationOrder: 4
    attribute: blendShape.Ball.Deforming_2
    path: 
    classID: 137
    script: {fileID: 0}
  - curve:
      serializedVersion: 2
      m_Curve:
      - serializedVersion: 3
        time: 0
        value: 0.95
        inSlope: 0
        outSlope: 0
        tangentMode: 136
        weightedMode: 3
        inWeight: 0.33333334
        outWeight: 0.33333334
      - serializedVersion: 3
        time: 3
        value: 0.95
        inSlope: 0
        outSlope: 0
        tangentMode: 136
        weightedMode: 3
        inWeight: 0.33333334
        outWeight: 0.33333334
      m_PreInfinity: 2
      m_PostInfinity: 2
      m_RotationOrder: 4
    attribute: m_LocalScale.x
    path: 
    classID: 4
    script: {fileID: 0}
  - curve:
      serializedVersion: 2
      m_Curve:
      - serializedVersion: 3
        time: 0
        value: 0.95
        inSlope: 0
        outSlope: 0
        tangentMode: 136
        weightedMode: 3
        inWeight: 0.33333334
        outWeight: 0.33333334
      - serializedVersion: 3
        time: 3
        value: 0.95
        inSlope: 0
        outSlope: 0
        tangentMode: 136
        weightedMode: 3
        inWeight: 0.33333334
        outWeight: 0.33333334
      m_PreInfinity: 2
      m_PostInfinity: 2
      m_RotationOrder: 4
    attribute: m_LocalScale.y
    path: 
    classID: 4
    script: {fileID: 0}
  - curve:
      serializedVersion: 2
      m_Curve:
      - serializedVersion: 3
        time: 0
        value: 0.95
        inSlope: 0
        outSlope: 0
        tangentMode: 136
        weightedMode: 3
        inWeight: 0.33333334
        outWeight: 0.33333334
      - serializedVersion: 3
        time: 3
        value: 0.95
        inSlope: 0
        outSlope: 0
        tangentMode: 136
        weightedMode: 3
        inWeight: 0.33333334
        outWeight: 0.33333334
      m_PreInfinity: 2
      m_PostInfinity: 2
      m_RotationOrder: 4
    attribute: m_LocalScale.z
    path: 
    classID: 4
    script: {fileID: 0}
  m_EulerEditorCurves: []
  m_HasGenericRootTransform: 0
  m_HasMotionFloatCurves: 0
  m_Events: []
