%YAML 1.1
%TAG !u! tag:unity3d.com,2011:
--- !u!114 &11400000
MonoBehaviour:
  m_ObjectHideFlags: 0
  m_CorrespondingSourceObject: {fileID: 0}
  m_PrefabInstance: {fileID: 0}
  m_PrefabAsset: {fileID: 0}
  m_GameObject: {fileID: 0}
  m_Enabled: 1
  m_EditorHideFlags: 0
  m_Script: {fileID: 11500000, guid: 3e467c3de6494fe489b8a4fda063fd8a, type: 3}
  m_Name: Player
  m_EditorClassIdentifier: 
  playerState: 0
  terminalState: 1
  playerSpeed: 8
  minDistToTerminal: 0.05
  terminal1Pos: {x: 0, y: -4, z: 0}
  terminal2Pos: {x: 0, y: 6, z: 0}
  rot1: {x: 0, y: 0, z: 180, w: 0}
  rot2: {x: 0, y: 0, z: -180, w: 0}
